HouseholdId,StatusElectric,StatusGas,TariffCurrency,TariffCurrencyType,ElectricSensorID,ElectricTariffDailyStandingCharge,ElectricTariffCostPerUnit,ElectricTariffCostPerUnit,GasSensorID,GasTariffDailyStandingCharge,GasTariffCostPerUnit,GasTariffCostPerUnit,GasCalorificValue,Tags,Zip/PostalCode,Latitude,Longtitude
0,Live,NULL,EUR,MAJOR,0,0,0.1,KWH,NULL,0,0,NULL,0,TEST_USER,SW1V 2AA,NULL,NULL
1,Live,NULL,EUR,MAJOR,1,0,0.1,KWH,NULL,0,0,NULL,0,TEST_USER,SW1V 2AA,NULL,NULL
2,Live,NULL,EUR,MAJOR,2,0,0.1,KWH,NULL,0,0,NULL,0,TEST_USER,SW1V 2AA,NULL,NULL
3,Live,NULL,EUR,MAJOR,3,0,0.1,KWH,NULL,0,0,NULL,0,TEST_USER,SW1V 2AA,NULL,NULL
4,Live,NULL,EUR,MAJOR,4,0,0.1,KWH,NULL,0,0,NULL,0,TEST_USER,SW1V 2AA,NULL,NULL
5,Live,NULL,EUR,MAJOR,5,0,0.1,KWH,NULL,0,0,NULL,0,TEST_USER,SW1V 2AA,NULL,NULL
6,Live,NULL,EUR,MAJOR,6,0,0.1,KWH,NULL,0,0,NULL,0,TEST_USER,SW1V 2AA,NULL,NULL
7,Live,NULL,EUR,MAJOR,7,0,0.1,KWH,NULL,0,0,NULL,0,TEST_USER,SW1V 2AA,NULL,NULL
8,Live,NULL,EUR,MAJOR,8,0,0.1,KWH,NULL,0,0,NULL,0,TEST_USER,SW1V 2AA,NULL,NULL
9,Live,NULL,EUR,MAJOR,9,0,0.1,KWH,NULL,0,0,NULL,0,TEST_USER,SW1V 2AA,NULL,NULL